{
    "dev": {
        "app_function": "main.app",
        "aws_region": "us-east-1",
        "profile_name": "default",
        "project_name": "qa-csv-upload",
        "runtime": "python3.6",
        "s3_bucket": "zappa-j2lbl7jpf"
    }
}